<?xml version="1.0" encoding="UTF-8" standalone="no"?>
<svg width="21px" height="21px" viewBox="0 0 21 21" version="1.1" xmlns="http://www.w3.org/2000/svg" xmlns:xlink="http://www.w3.org/1999/xlink" xmlns:sketch="http://www.bohemiancoding.com/sketch/ns">
    <!-- Generator: Sketch 3.0.4 (8053) - http://www.bohemiancoding.com/sketch -->
    <title>icon-schedule</title>
    <desc>Created with Sketch.</desc>
    <defs></defs>
    <g id="Page-1" stroke="none" stroke-width="1" fill="none" fill-rule="evenodd" sketch:type="MSPage">
        <g id="Desktop" sketch:type="MSArtboardGroup" transform="translate(-818.000000, -157.000000)" stroke="#FFFFFF">
            <g id="Top" sketch:type="MSLayerGroup" transform="translate(73.000000, 142.000000)">
                <g id="icon-schedule" transform="translate(746.000000, 16.000000)" sketch:type="MSShapeGroup">
                    <path d="M18.7641889,9.3328467 C18.7641889,14.4874859 14.5639337,18.6656934 9.38259704,18.6656934 C4.20025517,18.6656934 0,14.4874859 0,9.3328467 C0,4.17820753 4.20025517,0 9.38259704,0 C14.5639337,0 18.7641889,4.17820753 18.7641889,9.3328467 L18.7641889,9.3328467 Z" id="Stroke-29"></path>
                    <path d="M9,3 L9,10.0100093 L9,10.499475 L12.5182226,10.499475" id="Stroke-6"></path>
                </g>
            </g>
        </g>
    </g>
</svg>