<?xml version="1.0" encoding="UTF-8" standalone="no"?>
<svg width="21px" height="21px" viewBox="0 0 21 21" version="1.1" xmlns="http://www.w3.org/2000/svg" xmlns:xlink="http://www.w3.org/1999/xlink" xmlns:sketch="http://www.bohemiancoding.com/sketch/ns">
    <!-- Generator: Sketch 3.0.4 (8053) - http://www.bohemiancoding.com/sketch -->
    <title>icon-status</title>
    <desc>Created with Sketch.</desc>
    <defs></defs>
    <g id="Page-1" stroke="none" stroke-width="1" fill="none" fill-rule="evenodd" sketch:type="MSPage">
        <g id="Desktop" sketch:type="MSArtboardGroup" transform="translate(-817.000000, -283.000000)">
            <g id="Top" sketch:type="MSLayerGroup" transform="translate(73.000000, 142.000000)">
                <g id="icon-status" transform="translate(745.000000, 142.000000)" sketch:type="MSShapeGroup">
                    <path d="M18.7631837,9.33234674 C18.7631837,14.4869859 14.5629285,18.6646935 9.38159183,18.6646935 C4.19924996,18.6646935 0,14.4869859 0,9.33234674 C0,4.17770756 4.19924996,0 9.38159183,0 C14.5629285,0 18.7631837,4.17770756 18.7631837,9.33234674 L18.7631837,9.33234674 Z" id="Stroke-20" stroke="#FFFFFF"></path>
                    <path d="M10.4049951,3 C9.70537141,3 9.09973452,3.31197816 8.65442806,3.90293679 C8.26792618,4.41440099 8.07241353,4.98486106 8.07241353,5.59781815 C8.07241353,6.38526303 8.40664467,6.85473017 8.68759988,7.10971232 C8.72680293,7.14470987 8.76701119,7.17870749 8.80822465,7.21070525 C8.14227538,7.5156839 7.19285788,8.15063946 5.7317903,9.43454958 L5,10.0780045 L5.62523841,10.8239523 L6.01777153,11.2929195 L6.3545157,11.6953913 L5.92277952,12.8958073 C5.15078097,15.0596558 5.08644776,15.5406222 5.08644776,15.8216025 C5.08644776,16.6760427 5.71872261,17.2725009 6.62391103,17.2725009 C7.17777978,17.2725009 7.82312233,17.0410171 8.65643848,16.5440519 C9.3761663,16.114082 10.1330868,15.5151239 10.9060905,14.7641765 L11.6343626,14.057226 L10.9151374,13.342276 L10.5045105,12.9338046 L10.0883551,12.5193336 L10.9648951,9.9300149 C11.2709805,9.00957933 11.3317955,8.67410281 11.3317955,8.42911996 C11.3317955,8.01464897 11.1976004,7.65967382 10.9664029,7.40069195 C11.2770117,7.23670343 11.5539461,6.98822082 11.7806201,6.66374354 C12.1495309,6.13528053 12.3359967,5.56682032 12.3359967,4.97236193 C12.3359967,4.44889858 12.1530491,3.97593168 11.8067555,3.60295779 C11.441363,3.20898537 10.9563508,3 10.4049951,3 M9.88128254,7.94315398 C10.178321,7.94315398 10.326589,8.10514264 10.326589,8.42911996 C10.326589,8.58560901 10.2220475,8.97958143 10.012462,9.61103723 L8.58908964,13.814743 C8.54837878,13.9767316 8.52827465,14.1012229 8.52827465,14.1882168 C8.52827465,14.3097083 8.58004279,14.3702041 8.68508686,14.3702041 C8.84793031,14.3702041 9.21784628,14.1272211 9.79382958,13.6407551 L10.2044564,14.0492266 C9.48221558,14.7501775 8.79415176,15.2956393 8.13925976,15.6866119 C7.48436775,16.0770846 6.97975411,16.2725709 6.62391103,16.2725709 C6.26907315,16.2725709 6.09165421,16.1220815 6.09165421,15.8216025 C6.09165421,15.5491216 6.35099747,14.686182 6.8691814,13.2327837 L7.49743543,11.4869059 C7.73064333,10.8324517 7.84674468,10.4359795 7.84674468,10.2969892 C7.84674468,10.1519994 7.79095572,10.0795044 7.68088561,10.0795044 C7.5698103,10.0795044 7.273777,10.270991 6.79027269,10.6529643 L6.39723697,10.1839971 C8.09704108,8.69010169 9.25855714,7.94315398 9.88128254,7.94315398 M10.4049951,3.99993 C10.6728826,3.99993 10.894028,4.09392343 11.0684314,4.28191027 C11.2433373,4.46989711 11.3307902,4.69988101 11.3307902,4.97236193 C11.3307902,5.36033478 11.205642,5.7343086 10.9553456,6.09328347 C10.7045466,6.45175838 10.3959482,6.63174578 10.0300531,6.63174578 C9.77975669,6.63174578 9.55760606,6.54475187 9.36561163,6.37076405 C9.1741198,6.19727619 9.07761998,5.93929425 9.07761998,5.59781815 C9.07761998,5.20384573 9.20427599,4.83937124 9.45758802,4.50339476 C9.71090005,4.16791825 10.0270375,3.99993 10.4049951,3.99993" id="Fill-21" fill="#FFFFFF"></path>
                </g>
            </g>
        </g>
    </g>
</svg>