<?xml version="1.0" encoding="UTF-8"?>
<!DOCTYPE svg PUBLIC "-//W3C//DTD SVG 1.1//EN" "http://www.w3.org/Graphics/SVG/1.1/DTD/svg11.dtd">
<svg version="1.1" xmlns="http://www.w3.org/2000/svg" xmlns:xlink="http://www.w3.org/1999/xlink" width="24" height="24"  xml:space="preserve">
    <circle class="animated" id="oval" stroke="none" fill="rgb(255, 255, 255)" cx="3" cy="12" r="3" />
    <circle class="animated" id="oval2" stroke="none" fill="rgb(255, 255, 255)" cx="12" cy="12" r="3" />
    <circle class="animated" id="oval3" stroke="none" fill="rgb(255, 255, 255)" cx="21" cy="12" r="3" />
    <style>
    
    
    @-webkit-keyframes pulse { 
        0% {opacity: 1;} 
        100% {opacity: 0.2;} 
    } 
    @keyframes pulse { 
        0% {opacity: 1;} 
        100% {opacity: 0.2;} 
    } 
    .fadeOut { 
        -webkit-animation-name: fadeOut; 
        animation-name: fadeOut; 
    }
    #oval {
        -webkit-animation: pulse 1s infinite;
        animation: pulse 1s infinite;
    }
    #oval2 {
        opacity: 0.2;
        -webkit-animation: pulse 1s infinite;
        animation: pulse 1s infinite;
        -webkit-animation-delay: 0.3s;
        animation-delay: 0.3s;
    }
    #oval3 {
        opacity: 0.6;
        -webkit-animation: pulse 1s infinite;
        animation: pulse 1s infinite;
        -webkit-animation-delay: 0.6s;
        animation-delay: 0.6s;
    }
    </style>
</svg>